<?xml version="1.0" encoding="UTF-8"?>
<svg width="28px" height="28px" viewBox="0 0 28 28" version="1.1" xmlns="http://www.w3.org/2000/svg" xmlns:xlink="http://www.w3.org/1999/xlink">
    <!-- Generator: Sketch 56.3 (81716) - https://sketch.com -->
    <title>Fill 1</title>
    <desc>Created with Sketch.</desc>
    <g id="Page-1" stroke="none" stroke-width="1" fill="none" fill-rule="evenodd">
        <g id="Ressources-/-Recherche" transform="translate(-407.000000, -1459.000000)" fill="#FFFFFF">
            <path d="M407,1487 L414,1487 L414,1468 L407,1468 L407,1487 Z M410.500716,1466 C408.566864,1466 407,1464.43233 407,1462.49929 C407,1460.56767 408.566864,1459 410.500716,1459 C412.433135,1459 414,1460.56767 414,1462.49929 C414.001433,1464.43233 412.433135,1466 410.500716,1466 L410.500716,1466 Z M435,1487 L429.153846,1487 L429.153846,1476.81239 C429.153846,1474.01779 427.915923,1472.45843 425.695846,1472.45843 C423.279923,1472.45843 421.846154,1474.08318 421.846154,1476.81239 L421.846154,1487 L416,1487 L416,1468.07746 L421.846154,1468.07746 L421.846154,1470.20541 C421.846154,1470.20541 423.680385,1467 427.813579,1467 C431.948308,1467 435,1469.51244 435,1474.71217 L435,1487 Z" id="Fill-1"></path>
        </g>
    </g>
</svg>