<?xml version="1.0" encoding="UTF-8"?>
<svg width="34px" height="26px" viewBox="0 0 34 26" version="1.1" xmlns="http://www.w3.org/2000/svg" xmlns:xlink="http://www.w3.org/1999/xlink">
    <!-- Generator: Sketch 56.3 (81716) - https://sketch.com -->
    <title>Fill 1</title>
    <desc>Created with Sketch.</desc>
    <g id="Page-1" stroke="none" stroke-width="1" fill="none" fill-rule="evenodd">
        <g id="Ressources-/-Recherche" transform="translate(-311.000000, -1461.000000)" fill="#FFFFFF">
            <path d="M345,1464.07783 C343.749039,1464.59985 342.404578,1464.95264 340.993578,1465.11136 C342.43393,1464.29904 343.539859,1463.01269 344.060617,1461.48002 C342.712969,1462.23211 341.220156,1462.77837 339.631188,1463.0728 C338.358711,1461.79708 336.54582,1461 334.539555,1461 C330.687063,1461 327.563844,1463.93874 327.563844,1467.56358 C327.563844,1468.07797 327.625734,1468.57899 327.744602,1469.05938 C321.947203,1468.78569 316.807359,1466.17251 313.366852,1462.20149 C312.766406,1463.17091 312.422422,1464.29841 312.422422,1465.50128 C312.422422,1467.77841 313.653992,1469.7876 315.525719,1470.96447 C314.382203,1470.93048 313.306688,1470.63529 312.366109,1470.14365 C312.365711,1470.17102 312.365711,1470.19851 312.365711,1470.22613 C312.365711,1473.40632 314.770148,1476.05924 317.961234,1476.66224 C317.375797,1476.8122 316.759547,1476.89244 316.123375,1476.89244 C315.673805,1476.89244 315.236852,1476.85132 314.811055,1476.77459 C315.698641,1479.3824 318.274672,1481.27999 321.327102,1481.3331 C318.939797,1483.09347 315.931992,1484.14274 312.664008,1484.14274 C312.101016,1484.14274 311.545727,1484.11175 311,1484.05114 C314.086961,1485.91349 317.753648,1487 321.692867,1487 C334.523352,1487 341.539438,1476.99841 341.539438,1468.32467 C341.539438,1468.0401 341.532797,1467.75704 341.51925,1467.4756 C342.882039,1466.55017 344.064734,1465.39405 345,1464.07783" id="Fill-1"></path>
        </g>
    </g>
</svg>