<?xml version="1.0" encoding="UTF-8"?>
<svg width="299px" height="235px" viewBox="0 0 299 235" version="1.1" xmlns="http://www.w3.org/2000/svg" xmlns:xlink="http://www.w3.org/1999/xlink">
    <!-- Generator: Sketch 56.3 (81716) - https://sketch.com -->
    <title>Group</title>
    <desc>Created with Sketch.</desc>
    <g id="Page-1" stroke="none" stroke-width="1" fill="none" fill-rule="evenodd">
        <g id="Ressources-/-Publications" transform="translate(-251.000000, -701.000000)">
            <g id="Group" transform="translate(251.000000, 701.000000)">
                <rect id="Rectangle-Copy" fill="#FFFFFF" x="0" y="0" width="299" height="235"></rect>
                <path d="M24,184 L275,184" id="Line" stroke="#ECF6FA" stroke-linecap="square"></path>
            </g>
        </g>
    </g>
</svg>