<?xml version="1.0" encoding="UTF-8"?>
<svg width="106px" height="43px" viewBox="0 0 106 43" version="1.1" xmlns="http://www.w3.org/2000/svg" xmlns:xlink="http://www.w3.org/1999/xlink">
    <!-- Generator: Sketch 56.3 (81716) - https://sketch.com -->
    <title>Rectangle</title>
    <desc>Created with Sketch.</desc>
    <g id="Page-1" stroke="none" stroke-width="1" fill="none" fill-rule="evenodd">
        <g id="Notre-démarche-/-Nous-rejoindre" transform="translate(-1057.000000, -715.000000)" fill="#E2762D">
            <rect id="Rectangle" x="1057" y="715" width="106" height="43" rx="4"></rect>
        </g>
    </g>
</svg>